Kontakt Nr. Auftraggeber;009_Firma_1;010_Firma_2;011_Strasse;012_PLZ;013_Ort;016_Telefon;017_Telefax;018_Info_eMail;019_WebSite;014_Land;020_Konzernstatus;021_Konzernname;022_Konzernort;023_Konzernland;024_AP_1_Anrede;025_AP_1_Titel;026_AP_1_Vorname;027_AP_1_Nachname;028_AP_1_Funktionstyp;029_AP_1_Funktionsname;030_AP_1_Abteilung;031_AP_1_DW;032_AP_1_Mobil;033_AP_1_eMail;293_AP_1_OPT_in_out;294_AP_1_Newsletter;295_AP_1_Veranstaltung;034_AP_2_Anrede;035_AP_2_Titel;036_AP_2_Vorname;037_AP_2_Nachname;038_AP_2_Funktionstyp;039_AP_2_Funktionsname;040_AP_2_Abteilung;041_AP_2_DW;042_AP_2_Mobil;043_AP_2_eMail;297_AP_2_OPT_in_out;298_AP_2_Newsletter;299_AP_2_Veranstaltung;044_AP_3_Anrede;045_AP_3_Titel;046_AP_3_Vorname;047_AP_3_Nachname;048_AP_3_Funktionstyp;049_AP_3_Funktionsname;050_AP_3_Abteilung;051_AP_3_DW;052_AP_3_Mobil;053_AP_3_eMail;301_AP_3_OPT_in_out;302_AP_3_Newsletter;303_AP_3_Veranstaltung;054_AP_4_Anrede;055_AP_4_Titel;056_AP_4_Vorname;057_AP_4_Nachname;058_AP_4_Funktionstyp;059_AP_4_Funktionsname;060_AP_4_Abteilung;061_AP_4_DW;062_AP_4_Mobil;063_AP_4_eMail;305_AP_4_OPT_in_out;306_AP_4_Newsletter;307_AP_4_Veranstaltung;064_AP_5_Anrede;065_AP_5_Titel;066_AP_5_Vorname;067_AP_5_Nachname;068_AP_5_Funktionstyp;069_AP_5_Funktionsname;070_AP_5_Abteilung;071_AP_5_DW;072_AP_5_Mobil;073_AP_5_eMail;309_AP_5_OPT_in_out;310_AP_5_Newsletter;311_AP_5_Veranstaltung;074_Anzahl MA;075_Kategorie MA;184_Anzahl_Standorte;080_Branchenbezeichnung;194_ITK Profil 1;095_ITK Profil 2;093_ITK Profil 3;094_ITK Profil 4;150_Letzter_Kontakt_Kunde;WIEDERVORLAGE_Kunde;STATUS;Historie;
;Allgemeine Gold- und Silberscheideanstalt Aktiengesellschaft;;;75175;Pforzheim;;;info@allgemeine-gold.de;www.allgemeine-gold.de;;;;;;Sehr geehrter Herr;;Dietmar;Becker;;;Vorstand;;;info@allgemeine-gold.de;;;;;;;;;;;;;;;;;;;;;;;;;;;;;;;;;;;;;;;;;;;;;;;;;;;;;;;;;;;;;;;;;;1;;
;Aluplast GmbH;;;76227;Karlsruhe;;;info@aluplast.de;www.aluplast.de;;;;;;Herr;;Ingo;Arheit;;;EDV/ORG-Leiter;;;info@aluplast.de;;;;Herr;;Christian;Feldmann;;;Geschäftsführer;;;info@aluplast.de;;;;Herr;;Reiner;Kuderer;;;IT-Leiter;;;reiner.kuderer@aluplast.net;;;;;;;;;;;;;;;;;;;;;;;;;;;;;;1300;;;9980   Kunststoff-Fenstersysteme;;;;;;;2;;
;Amann Girrbach GmbH;;;75177;Pforzheim;;;;http://www.amanngirrbach.com;;;;;;Sehr geehrte Frau;;Jutta;Girrbach;;;Geschäftsfürerin;;;;;;;;;;;;;;;;;;;;;;;;;;;;;;;;;;;;;;;;;;;;;;;;;;;;;;;;;;;;;;;;;;;;;7;;
;Andreas Daub GmbH & Co. KG.;;;75179;Pforzheim;;;nv@is-engineering.de;www.andreas-daub.com;;;;;;Sehr geehrter Herr;;Hermann;Daub;;;Geschäftsführer;;;nv@is-engineering.de;;;;Sehr geehrter Herr;;Kurt;Daub;;;Geschäftsführer;;;info@andreas-daub.com;;;;Sehr geehrter Herr;;Karl Adolf;Daub;;;Geschäftsführer;;;nv@is-engineering.de;;;;;;;;;;;;;;;;;;;;;;;;;;;;;;;;;;;;;;;;5;;
;Arthrex Medizinische Instrumente GmbH;;;85757;Karlsfeld;;;info@arthrex.de;www.arthrex.de;;;;;;Herr;;Christian;Heigl;;;EDV/ORG-Leiter;;;info@arthrex.de;;;;Herr;;Geert;Onan;;;Geschäftsführer;;;info@arthrex.de;;;;Frau;;Lydia;Loth;;;Finanzwesen;;;info@arthrex.de;;;;;;;;;;;;;;;;;;;;;;;;;;;;;;150;;;9980   Medizintechnik;;;;;;;1;;
;AUMA Riester GmbH & Co. KG Armaturen- und Maschinenantriebe;;;79379;Müllheim;;;riester@auma.com;www.auma.com;;;;;;Herr;;Matthias;Dinse;;;Geschäftsführer;;;riester@auma.com;;;;Herr;;Peter;Gloggengießer;;;Leiter IT;;;peter.gloggengiesser@auma.com;;;;Herr;;Hans-Christian;Reinacher;;;Datenschutzbeauftragter;;;riester@auma.com;;;;;;;;;;;;;;;;;;;;;;;;;;;;;;1000;;;3020   Maschinen,Armaturen;;;;;;;2;;
;Autostadt GmbH;;;38440;Wolfsburg;;;service@autostadt.de;www.autostadt.de;;;;;;Herr;;Otto Ferdinand;Wachs;;;Geschäftsführer;;;service@autostadt.de;;;;Frau;;Frauke;Smithper;;;Geschäftsführerin;;;service@autostadt.de;;;;;;;;;;;;;;;;;;;;;;;;;;;;;;;;;;;;;;;;;;;900;;;7020   Reisebüro;;;;;;;2;;
;Baader Bank AG;;;81249;München;;;info@baaderbank.de;www.baaderbank.de;;;;;;Herr;;Robert;Freckl;;;EDV/ORG-Leiter;;;info@baaderbank.de;;;;Frau;;Sandra;Wieser;;;Head of Client Intelligence Group;;;info@baaderbank.de;;;;;;;;;;;;;;;;;;;;;;;;;;;;;;;;;;;;;;;;;;;200;;;8000   Bank;;;;;;;2;;
;Bernhard Förster GmbH;;;75172;Pforzheim;;;rolf.foerster@forestadent.com;www.forestadent.com;;;;;;Sehr geehrter Herr;;Rolf;Förster;;;Geschäftsführer;;;rolf.foerster@forestadent.com;;;;Sehr geehrter Herr;;Rudolf;Beutter;;;Geschäftsführer;;;rudolf.beutter@forestadent.com;;;;Sehr geehrter Herr;;Gerhard;Förster;;;Geschäftsführer;;;gerhard.foerster@forestadent.com;;;;;;;;;;;;;;;;;;;;;;;;;;;;;;;;;;;;;;;;1;;
;Berthold Technologies GmbH & Co.KG;;;75323;Bad Wildbad;;;berthold@bertholdtech.com;http://www.bertholdtech.com;;;;;;Sehr geehrter Herr;;Horst G.;Knauff;;;Geschäftsführer;;;berthold@bertholdtech.com;;;;;;;;;;;;;;;;;;;;;;;;;;;;;;;;;;;;;;;;;;;;;;;;;;;;;;;;;;;;;;;;;;3;;
;C. Hafner GmbH + Co.KG;;;75173;Pforzheim;;;nv@is-engineering.de;http://www.c-hafner.de;;;;;;Sehr geehrter Herr Dr.;Dr.;Philipp;Reisert;;;Geschäftsführer;;;nv@is-engineering.de;;;;Sehr geehrte Frau;;Birgitta K.;Hafner;;;Geschäftsführerin;;;info@c-hafner.de;;;;;;;;;;;;;;;;;;;;;;;;;;;;;;;;;;;;;;;;;;;;;;;;;;;;;1;;
;Carl Spaeter Südwest GmbH;;;76189;Karlsruhe;;;m.marecki@spaeter.de;www.spaeter-karlsruhe.de;;;;;;Herr;;Michael;Mareki;;;EDV Leiter;;;m.marecki@spaeter.de;;;;Herr;;Klaus;Dohmesen;;;Geschäftsführer;;;info@spaeter-karlsruhe.de;;;;;;;;;;;;;;;;;;;;;;;;;;;;;;;;;;;;;;;;;;;160;;;6000   Metallhandel;;;;;;;2;;
;Coler GmbH & Co.KG;;;48155;Münster;;;info@coler.de;www.coler.de;;;;;;Herr;;Christoph;Berdelmann;;;EDV/ORG-Leiter;;;info@coler.de;;;;Herr;Dipl.-Kfm.;Fabian;Roberg;;;Geschäftsführer;;;info@coler.de;;;;Frau;;Anneliese;Bläschke;;;Geschäftsführerin;;;info@coler.de;;;;;;;;;;;;;;;;;;;;;;;;;;;;;;800;;;6000   Autoelektrik;;;;;;;1;;
;Comline AG;;;44227;Dortmund;;;info@comline.de;www.comline.de;;;;;;Frau;;Bettina;Pischke;;;Marketingleiter;;;info@comline.de;;;;Herr;;Stephan;Schilling;;;Vorstand;;;info@comline.de;;;;Herr;;Erwin;Leonhardi;;;Presse;;;info@comline.de;;;;;;;;;;;;;;;;;;;;;;;;;;;;;;100;;;HA   Bürokommunikation,UNIX,SAP,Lotus,AIX,Archivsysteme;;;;;;;2;;
;DATAGROUP Hamburg GmbH;;;20539;Hamburg;;;hamburg@datagroup.de;www.datagroup.de;;;;;;Herr;;;Kippkadas;;;Betreuung Tochtergesellschaften;;;hamburg@datagroup.de;;;;;;;;;;;;;;;;;;;;;;;;;;;;;;;;;;;;;;;;;;;;;;;;;;;;;;;;200;;;HA   Hardware,Schulung,Lotus,Citrix,SAP,SharePoint;;;;;;;1;;
;Dell GmbH Main Airpor Center;;;60549;Frankfurt;;;webmaster_germany@dell.com;www.dell.de;;;;;;Herr;;Michael;Faust;;;Marketingleiter;;;webmaster_germany@dell.com;;;;Herr;;Jürgen;Wiederroth;;;Vertriebsleiter;;;webmaster_germany@dell.com;;;;Herr;;Peter;Kreijzer;;;Geschäftsführer;;;webmaster_germany@dell.com;;;;Herr;;Nerses;Chopurian;;;Presse;;;webmaster_germany@dell.com;;;;;;;;;;;;;;;;;600;;;HAP   Hardware,PC's,WebShop;;;;;;;1;;
;DENTAURUM J.P. Winkelstroeter KG;;;75228;Ispringen;;;jochen.winkelstroeter@dentaurum.de;http://www.dentaurum.com;;;;;;Sehr geehrter Herr;;Jochen P.;Winkelstroeter;;;Gesellschafter;;;jochen.winkelstroeter@dentaurum.de;;;;;;;;;;;;;;;;;;;;;;;;;;;;;;;;;;;;;;;;;;;;;;;;;;;;;;;;;;;;;;;;;;3;;
;Deutsche Post Adress GmbH & Co.KG;;;33332;Gütersloh;;;rüdiger.düchting@postadress.de;www.adress-research.de;;;;;;Herr;;Rüdiger;Düchting;;;Leiter IT;;;rüdiger.düchting@postadress.de;;;;Herr;;Philip;Rürup;;;Geschäftsführer;;;info@adress-research.de;;;;Herr;;Gebriele;Büldt;;;Geschäftsführer;;;info@adress-research.de;;;;;;;;;;;;;;;;;;;;;;;;;;;;;;130;;;8050   Adressen-Service;;;;;;;2;;
;DHL Vertriebs GmbH & Co. OHG;;;53113;Bonn;;;;www.euroexpress.de;;;;;;Herr;;David;Thornville;;;EDV/ORG-Leiter;;;;;;;Frau;;Katja;Herbst;;;Geschäftsführerin;;;;;;;Herr;;Ulrich;Joritz;;;Geschäftsführer;;;;;;;Herr;Dr.;;Wessels;;;Geschäftsführer;;;;;;;;;;;;;;;;;;;;1500;;;7020   Paketdienst;;;;;;;2;;
;Dietrich Aldinger Gesellschaft mit beschränkter Haftung;;;72202;Nagold;;;nv@is-engineering.de;http://www.aldinger-gmbh.de;;;;;;Sehr geehrter Herr;;Achim;Aldinger;;;Geschäftsführer;;;nv@is-engineering.de;;;;Sehr geehrter Herr;;Dietrich;Aldinger;;;Geschäftsführer;;;zentrale@aldinger-gmbh.de;;;;;;;;;;;;;;;;;;;;;;;;;;;;;;;;;;;;;;;;;;;;;;;;;;;;;3;;
;DOKOM Gesellschaft für Telekommunikation mbH;;;44269;Dortmund;;;info@dokom21.de;www.dokom.de;;;;;;Herr;;Jörg;Figura;;;Geschäftsführer;;;info@dokom21.de;;;;Herr;;Stefan;Skuballa;;;Geschäftsführer;;;info@dokom21.de;;;;;;;;;;;;;;;;;;;;;;;;;;;;;;;;;;;;;;;;;;;1000;;;DIE   Telekommunikationsdienstleistungen,Internetdienste;;;;;;;1;;
;Drägerwerk AG & Co.KGaA;;;23558;Lübeck;;;info@draeger.com;www.draeger.com;;;;;;Herr;Dipl.-Ing.;Stefan;Dräger;;;Vorstand;;;info@draeger.com;;;;Herr;;Alexander;Maas;;;Senior Consultant CRM;;;info@draeger.com;;;;Herr;Prof.Dr.;;Jugel;;;Vorstand;;;info@draeger.com;;;;;;;;;;;;;;;;;;;;;;;;;;;;;;9900;;;3060   Feinmechanik;;;;;;;1;;
;Drees & Sommer AG;;;70569;Stuttgart;;;info@dreso.com;www.dreso.de;;;;;;Frau;;Katja;Meyer;;;Leiterin IT EInkauf;;;info@dreso.com;;;;;;;;;;;;;;;;;;;;;;;;;;;;;;;;;;;;;;;;;;;;;;;;;;;;;;;;300;;;5100   Bautechnische Beratung;;;;;;;1;;
;Dresdner Kühlanlagenbau GmbH;;;1069;Dresden;;;m.engler@dka-dd.de;www.dka-dresden.de;;;;;;Herr;;Marco;Engler;;;IT Team Manager;;;m.engler@dka-dd.de;;;;;;;;;;;;;;;;;;;;;;;;;;;;;;;;;;;;;;;;;;;;;;;;;;;;;;;;700;;;3020   Kälteanlagenbau;;;;;;;1;;
;Duale Hochschule Baden-WÜrttemberg;;;70174;Stuttgart;;;poststelle@dhbw.de;www.dhbw.de;;;;;;Herr;;;Prof.Geilsdörfer;;;Präsident;;;poststelle@dhbw.de;;;;Herr;Prof.Dr.;;Schwenkreis;;;EDV/ORG-Leiter;;;poststelle@dhbw.de;;;;Herr;Prof.Dr.;;Straub;;;EDV;;;poststelle@dhbw.de;;;;;;;;;;;;;;;;;;;;;;;;;;;;;;;;;9030   Hochschule;;;;;;;1;;
;ECG Energie Consulting GmbH;;;77694;Kehl;;;info@ecg-kehl.de;www.ecg-kehl.de;;;;;;Herr;Dr.;;Hahn;;;Kaufmännischer Leiter;;;info@ecg-kehl.de;;;;Herr;;Christian;Schweiger;;;Leiter IT;;;christian.schweiger@ecg-kehl.de;;;;;;;;;;;;;;;;;;;;;;;;;;;;;;;;;;;;;;;;;;;450;;;8080   Energieberatung;;;;;;;2;;
;EFD Induction GmbH;;;79106;Freiburg;;;efd-freiburg@de.efdgroup.net;www.efd-induction.com;;;;;;Herr;;Helmut;Schulte;;;Vertriebsleiter Europa;;;efd-freiburg@de.efdgroup.net;;;;Herr;;Jürgen;Hofmann;;;Stv. Leiter IT;;;efd-freiburg@de.efdgroup.net;;;;Frau;;Martina;Waschke;;;Geschäftsführerin;;;efd-freiburg@de.efdgroup.net;;;;;;;;;;;;;;;;;;;;;;;;;;;;;;200;;;6000   Großhandel;;;;;;;2;;
;egf Eduard G. Fidel GmbH;;;75179;Pforzheim;;;info@egf.biz;www.egf.biz;;;;;;Herr;;Hans Peter;Barth;;;Geschäftsführer;;;info@egf.biz;;;;Herr;;Kai-F.;Binder;;;Geschäftsführer;;;info@egf.biz;;;;;;;;;;;;;;;;;;;;;;;;;;;;;;;;;;;;;;;;;;;450;;;4990   Schmuck und Uhren;;;;;;;2;;
;EGT AG;;;78098;Triberg;;;info@egt.de;www.egt.de;;;;;;Herr;;Edgar;Hänggi;;;EDV/ORG-Leiter;;;info@egt.de;;;;Herr;Dipl.-In.g;Frank;Jarmer;;;Vorstand;;;info@egt.de;;;;Herr;;Sebastian;Otto;;;Stv. Leiter IT;;;Sebastian.otto@egt.de;;;;Herr;;Markus;Rütschle;;;Kaufmännischer Leiter;;;info@egt.de;;;;;;;;;;;;;;;;;200;;;2000   Energieversorgung,Solartechnik;;;;;;;1;;
;ekom 21 GmbH;;;35398;Gießen;;;ekom21@ekom21.de;www.ekom21.de;;;;;;Herr;;Armin;Merle;;;EDV/ORG-Leiter;;;ekom21@ekom21.de;;;;Herr;;Bertram;Huke;;;Geschäftsführer;;;ekom21@ekom21.de;;;;Herr;;Stefan;Thomas;;;Geschäftsführer;;;ekom21@ekom21.de;;;;;;;;;;;;;;;;;;;;;;;;;;;;;;450;;;DIE   Rechenzentrum,Internetdienste;;;;;;;1;;
;EnBW Systeme Infrastruktur Support GmbH;;;76131;Karlsruhe;;;kontakt@enbw.com;www.enbw.com;;;;;;Herr;;Jörg;Schwarzer;;;EDV;;;kontakt@enbw.com;;;;Herr;;Hans-Günther;Meier;;;Geschäftsführer;;;kontakt@enbw.com;;;;;;;;;;;;;;;;;;;;;;;;;;;;;;;;;;;;;;;;;;;600;;;2000   Energieversorgung;;;;;;;1;;
;EP:PRAML GmbH;;;94161;Ruderting;;;info@praml-group.com;www.praml-group.com;;;;;;Herr;;Martin;Praml;;;Geschäftsführer;;;info@praml-group.com;;;;Herr;;Johann;Angloher;;;Leiter IT;;;Johann.Angloher@praml.de;;;;;;;;;;;;;;;;;;;;;;;;;;;;;;;;;;;;;;;;;;;330;;;5950   Heizungstechnik,Solartechnik;;;;;;;1;;
;Ernst Jäger Kunststoffverpackung GmbH;;;42781;Haan;;;info@ernst-jaeger-gmbh.de;www.richtig-verpacken.de;;;;;;Herr;;;Kaulen;;;EDV/ORG-Leiter;;;info@ernst-jaeger-gmbh.de;;;;;;;;;;;;;;;;;;;;;;;;;;;;;;;;;;;;;;;;;;;;;;;;;;;;;;;;25;;;9980   Kunststoffverpackungen;;;;;;;2;;
;ESSIG Frischmenue GmbH;;;72213;Altensteig;;;essig@essig-firmengruppe.de;http://www.essig-firmengruppe.de;;;;;;Sehr geehrte Frau;;Adolf;Essig;;;Geschäftsführer;;;essig@essig-firmengruppe.de;;;;;;;;;;;;;;;;;;;;;;;;;;;;;;;;;;;;;;;;;;;;;;;;;;;;;;;;;;;;;;;;;;1;;
;Eurofins Scientific GmbH;;;21079;Hamburg;;;info@eurofins.de;www.eurofins.de;;;;;;Herr;;Ralph Thomas;Aussem;;;EDV/ORG-Leiter;;;info@eurofins.de;;;;Herr;;Nico;Weidig;;;Expert Sales;;;info@eurofins.de;;;;;;;;;;;;;;;;;;;;;;;;;;;;;;;;;;;;;;;;;;;330;;;9980;;;;;;;2;;
;Evangelische Stiftung Alsterdorf;;;22297;Hamburg;;;info@alsterdorf.de;www.alsterdorf.de;;;;;;Herr;;Lars;Neidhardt;;;EDV/ORG-Leiter;;;info@alsterdorf.de;;;;Herr;;Ingo;Siegmund;;;Presse;;;info@alsterdorf.de;;;;Frau;;Gudrun;Lampert;;;Internet;;;info@alsterdorf.de;;;;Herr;;Jens;Maitra;;;Leiter ITK;;;info@alsterdorf.de;;;;;;;;;;;;;;;;;4100;;;9040   Stiftung;;;;;;;1;;
;Expotechnik Heinz Soschinski GmbH;;;65232;Taunusstein;;;germany@expotechnik.com;www.expotechnik.de;;;;;;Herr;;Alexander;Thiel;;;EDV/ORG-Leiter;;;germany@expotechnik.com;;;;Herr;;Peter W.;Soschinski;;;Geschäftsführer;;;germany@expotechnik.com;;;;Herr;;Alexander D.;Soschinski;;;Finanzwesen;;;germany@expotechnik.com;;;;Herr;;Patrick O.;Soschinski;;;Geschäftsführer;;;germany@expotechnik.com;;;;;;;;;;;;;;;;;500;;;9980   Messebau;;;;;;;1;;
;Fein GmbH & Co.;;;73529;Schwäbisch Gmünd;;;info@fein.de;www.fein.de;;;;;;Frau;;Elisabeth;Geiger;;;;;;info@fein.de;;;;Herr;;Otto-Max;Herbstritt;;;CIO;;;otto-max.herbstritt@fein.de;;;;;;;;;;;;;;;;;;;;;;;;;;;;;;;;;;;;;;;;;;;820;;;9980;;;;;;;1;;
;Felsomat GmbH & Co KG;;;75203;Königsbach-Stein;;;jaeger@felsomat.de;www.felsomat.de;;;;;;Sehr geehrter Herr;;Jürgen;Groß;;;Geschäftsführer;;;jaeger@felsomat.de;;;;Sehr geehrter Herr;;Axel;Freytag;;;Geschäftsführer;;;hagenmeyer@felsomat.de;;;;;;;;;;;;;;;;;;;;;;;;;;;;;;;;;;;;;;;;;;;;;;;;;;;;;1;;
;Festool GmbH;;;73240;Wendlingen;;;info@tts-festool.com;www.festool.com;;;;;;Herr;Dr.;;Hartmann;;;Internet;;;info@tts-festool.com;;;;Herr;;Günther;Ritter;;;EDV/ORG-Leiter;;;info@tts-festool.com;;;;Herr;;Horst;Geiger;;;Geschäftsführer;;;info@tts-festool.com;;;;Frau;;Tina;Lachmann;;;Geschäftsführerin;;;info@tts-festool.com;;;;;;;;;;;;;;;;;100;;;3020   Werkzeugmaschinen;;;;;;;1;;
;FiNUM.Private Finance AG;;;10789;Berlin;;;zentrale@srq-online.de;www.srq-online.de;;;;;;Herr;;Jürgen;Schneider;;;Vorstand;;;zentrale@srq-online.de;;;;Herr;;T.;Schulz;;;EDV Verantwortlicher;;;T.Schulz@finum.de;;;;;;;;;;;;;;;;;;;;;;;;;;;;;;;;;;;;;;;;;;;100;;;9980;;;;;;;1;;
;Format Tresorbau GmbH;;;37235;Hessisch Lichtenau;;;info@format-tresorbau.de;www.format-tresorbau.de;;;;;;Herr;;Dirk;Sattmann;;;EDV/ORG-Leiter;;;info@format-tresorbau.de;;;;Herr;;;Weingarten;;;CRM;;;info@format-tresorbau.de;;;;Herr;;Ralph;Breidenstein;;;Geschäftsführer;;;info@format-tresorbau.de;;;;;;;;;;;;;;;;;;;;;;;;;;;;;;185;;;ZUB   Datensicherungsschränke;;;;;;;1;;
;Franz Breuning GmbH & Co. KG;;;75172;Pforzheim;;;info@breuning.de;http://www.breuning.de;;;;;;Sehr geehrter Herr;;Marcus;Breuning;;;Geschäftsführer;;;info@breuning.de;;;;;;;;;;;;;;;;;;;;;;;;;;;;;;;;;;;;;;;;;;;;;;;;;;;;;;;;;;;;;;;;;;7;;
;Frascio Deutschland GmbH;;;89081;Ulm;;;info@frascio.de;www.frascio.de;;;;;;Herr;;Matthias;Lamparter;;;Geschäftsführer;;;info@frascio.de;;;;Herr;;Gerhard;Menzel;;;Geschäftsführer;;;info@frascio.de;;;;Herr;;;Haroman;;;EDV;;;info@frascio.de;;;;;;;;;;;;;;;;;;;;;;;;;;;;;;100;;;9980   Türgriffe,Schutzbeschäge,Glas-und Schiebetürsysteme;;;;;;;1;;
;Funkwerk Enterprise Communications GmbH Communications GmbH;;;90449;Nürnberg;;;info@funkwerk-ec.com;www.funkwerk-ec.de;;;;;;Herr;;Hans-Peter;Mistele;;;Vertriebsleiter;;;info@funkwerk-ec.com;;;;Herr;;Adreas;Lehmann;;;Webmaster;;;ndreas.Lehmann@bintec-elmeg.com;;;;Herr;;Hary;Maier;;;Presse;;;info@funkwerk-ec.com;;;;;;;;;;;;;;;;;;;;;;;;;;;;;;150;;;HA   Netzwerke,Sicherheit;;;;;;;1;;
;G + J Electronic Media Sales GmbH;;;20459;Hamburg;;;;www.ems.guj.de;;;;;;Herr;;Arne;Wolter;;;Geschäftsführer;;;;;;;Frau;;Beate;Petersen;;;Marketingleiter;;;;;;;Herr;Dr.;;Lutz;;;Kaufmännischer Leiter;;;;;;;;;;;;;;;;;;;;;;;;;;;;;;;;;65;;;6020   Medienunternehmen;;;;;;;1;;
;G+J Electronics Media Sales GmbH;;;20459;Hamburg;;;werbung@ems.guj.de;www.ems-guj.de;;;;;;Herr;;Alexander;Gründel;;;Internet;;;werbung@ems.guj.de;;;;Herr;;Alexanbder;Adler;;;;;;werbung@ems.guj.de;;;;Herr;Dr.;;Lutz;;;Geschäftsführer;;;werbung@ems.guj.de;;;;;;;;;;;;;;;;;;;;;;;;;;;;;;55;;;6020   Vermarktung von elektronischen Medien;;;;;;;1;;
;Garmin Würzburg GmbH;;;97080;Würzburg;;;info@navigon.de;www.garmin.de;;;;;;Herr;;Johannes;Angenvoort;;;;;;info@navigon.de;;;;Herr;;Peter;Scheufen;;;Geschäftsführer;;;info@navigon.de;;;;;;;;;;;;;;;;;;;;;;;;;;;;;;;;;;;;;;;;;;;200;;;HA   Navigationsgeräte;;;;;;;1;;
;GDF SUEZ Energie Deutschland AG;;;10117;Berlin;;;info@gdfsuez-energie.de;www.gdfsuez-energie.de;;;;;;Herr;;Etienne;Jaques;;;EDV/ORG-Leiter;;;info@gdfsuez-energie.de;;;;Herr;;Erik;von Scholz;;;Vorstand;;;info@gdfsuez-energie.de;;;;Frau;;;Gallenkamp;;;CRM-Verantwortliche;;;info@gdfsuez-energie.de;;;;Frau;;Anke;Langner;;;Vorstand;;;info@gdfsuez-energie.de;;;;;;;;;;;;;;;;;300;;;2000   Energieversorgung;;;;;;;1;;
;GEBHARDT Logistic Solutions GmbH;;;93413;Cham;;;info@gebhardt.eu;www.gebhardt.eu;;;;;;Herr;;Peter;Schneider;;;EDV/ORG-Leiter;;;info@gebhardt.eu;;;;Herr;;Franz;Lesch;;;Geschäftsführer;;;info@gebhardt.eu;;;;Herr;;Michael;Haindl;;;Geschäftsführer;;;info@gebhardt.eu;;;;Herr;;Thorsten;Hübschmann;;;Senior Manager IT-Systems;;;info@gebhardt.eu;;;;;;;;;;;;;;;;;400;;;3070   Transport-und Lagersysteme;;;;;;;1;;
;Gebr. Bellmer GmbH;;;75223;Niefern-Öschelbronn;;;nv@is-engineering.de;www.bellmer.de;;;;;;Sehr geehrter Herr;;Philipp;Kollmar;;;Geschäftsführer;;;nv@is-engineering.de;;;;Sehr geehrter Herr;;Erich;Kollmar;;;Geschäftsführer;;;nv@is-engineering.de;;;;Sehr geehrter Herr;;Martin;Kollmar;;;Geschäftsführer;;;info@bellmer.de;;;;;;;;;;;;;;;;;;;;;;;;;;;;;;;;;;;;;;;;1;;
;Gebr. Bruse KG;;;57439;Attendorn;;;info@bruse.de;www.bruse.de;;;;;;Herr;;Christoph;Hüttenhein;;;EDV/ORG-Leiter;;;info@bruse.de;;;;Herr;;Rainer;Bruse;;;Geschäftsführer;;;info@bruse.de;;;;Frau;;Jessica;Humpert;;;IT Leiterin;;;info@bruse.de;;;;;;;;;;;;;;;;;;;;;;;;;;;;;;200;;;6000   Armaturen;;;;;;;1;;
;Gebr. Saacke GmbH & Co.KG;;;75181;Pforzheim;;;info@saacke-pforzheim.de;http://www.saacke-pforzheim.de;;;;;;Sehr geehrter Herr;;Georg K.;Saacke;;;Geschäftsführer;;;info@saacke-pforzheim.de;;;;;;;;;;;;;;;;;;;;;;;;;;;;;;;;;;;;;;;;;;;;;;;;;;;;;;;;;;;;;;;;;;3;;
;Getriebebau NORD GmbH & Co.KG;;;22941;Bargteheide;;;info@nord-de.com;www.nord.com;;;;;;Herr;;Jens;Niemann;;;Leiter;;;info@nord-de.com;;;;Herr;;Ullrich;Küchenmeister;;;Geschäftsführer;;;info@nord-de.com;;;;Herr;;Heiner;Behlen;;;Geschäftsführer;;;info@nord-de.com;;;;;;;;;;;;;;;;;;;;;;;;;;;;;;1700;;;3020   Antriebstechnik;;;;;;;2;;
;GIA mbH Ges.für industrielle Automatisierung mbH;;;51373;Leverkusen;;;info@gia.de;www.gia.de;;;;;;Herr;;;Hänisch;;;EDV-Leiter;;;info@gia.de;;;;;;;;;;;;;;;;;;;;;;;;;;;;;;;;;;;;;;;;;;;;;;;;;;;;;;;;;;;3050   Industrieautomation;;;;;;;1;;
;Gigaset Communications GmbH;;;81379;München;;;info.presse@gigaset.com;www.gigaset.com;;;;;;Herr;Dr.;;Blum;;;Geschäftsführer;;;info.presse@gigaset.com;;;;Herr;;Gilbert;Riegel;;;EDV/ORG-Leiter;;;info.presse@gigaset.com;;;;Herr;;Klaus;Wessing;;;Geschäftsführer;;;info.presse@gigaset.com;;;;Herr;;Georg;Sahnen;;;Geschäftsführer;;;info.presse@gigaset.com;;;;;;;;;;;;;;;;;100;;;TEL   Telekommunikation;;;;;;;1;;
;GKL Gemeinsame Klassenlotterie der Länder;;;22297;Hamburg;;;info@gkl.org;www.gkl.org;;;;;;Herr;;Wolfgang;Bürger;;;EDV/ORG-Leiter;;;info@gkl.org;;;;Herr;;;Holm;;;Abteilungsleter;;;info@gkl.org;;;;;;;;;;;;;;;;;;;;;;;;;;;;;;;;;;;;;;;;;;;100;;;8090   Wett- Toto- und Lotterie-Organisation;;;;;;;1;;
;goetzpartners Management Consultants GmbH;;;80538;München;;;info@goetzpartners.com;www.goetzpartners.com;;;;;;Herr;;Hakan;Kutlug;;;EDV/ORG-Leiter;;;info@goetzpartners.com;;;;Herr;;Frank;Ewerdwalbesloh;;;Geschäftsführer;;;info@goetzpartners.com;;;;Herr;;Stefan;Sanktjohanser;;;Geschäftsführer;;;info@goetzpartners.com;;;;;;;;;;;;;;;;;;;;;;;;;;;;;;200;;;8080   Unternehmensberatung;;;;;;;2;;
;Goldbeck GmbH;;;33649;Bielefeld;;;klaus.mayer@goldbeck.de;www.goldbeck.de;;;;;;Herr;;Klaus;Mayer;;;EDV/ORG-Leiter;;;klaus.mayer@goldbeck.de;;;;Herr;;Uwe;Brackmann;;;Geschäftsführer;;;info@goldbeck.de;;;;Herr;;Lars;Luderer;;;Geschäftsführer;;;info@goldbeck.de;;;;Herr;;Martin;Melcher;;;Geschäftsführer;;;info@goldbeck.de;;;;;;;;;;;;;;;;;3300;;;5000   Gebäude aus Stahl und Aluminium;;;;;;;2;;
;GreyLogix GmbH;;;24941;Flensburg;;;info@greylogix.de;www.greylogix.de;;;;;;Herr;;Stefan;Gehrisch;;;Leiter IT;;;info@greylogix.de;;;;Herr;;Dirk;Nagel;;;Geschäftsführer;;;info@greylogix.de;;;;;;;;;;;;;;;;;;;;;;;;;;;;;;;;;;;;;;;;;;;300;;;3050   Prozeßleitsysteme;;;;;;;1;;
;Grimme Landmaschinenfabrik GmbH & Co.KG;;;49401;Damme;;;o.rahner@grimme.de;www.grimme.de;;;;;;Herr;;Oliver;Rahner;;;EDV/ORG-Leiter;;;o.rahner@grimme.de;;;;Herr;;;Schumacher;;;Finanzwesen;;;grimme@grimme.de;;;;Herr;;Werner;Plöger;;;Geschäftsführer;;;grimme@grimme.de;;;;;;;;;;;;;;;;;;;;;;;;;;;;;;2000;;;3020   Landmaschinen;;;;;;;1;;
;Grossmann Leuchten GmbH & Co.KG;;;59469;Ense;;;info@grossmann-leuchten.de;www.grossmann-leuchten.de;;;;;;Herr;;Dietmar;Melis;;;EDV/ORG-Leiter;;;info@grossmann-leuchten.de;;;;Herr;;Michael;Grossmann;;;Geschäftsführer;;;info@grossmann-leuchten.de;;;;;;;;;;;;;;;;;;;;;;;;;;;;;;;;;;;;;;;;;;;50;;;3050   Beleuchtung;;;;;;;1;;
;GWQ ServicePlus AG;;;40474;Düsseldorf;;;info@gwq-serviceplus.de;www.gwq-serviceplus.de;;;;;;Herr;;Ralph;Wiegand;;;;;;info@gwq-serviceplus.de;;;;Herr;;Matthis;Preuß;;;Referent;;;matthias.preuss@gwq-serviceplus.de;;;;;;;;;;;;;;;;;;;;;;;;;;;;;;;;;;;;;;;;;;;900;;;8010   Betriebskrankenkasse;;;;;;;1;;
;Häfen und Güterverkehr Köln AG;;;50678;Köln;;;presse@hgk.de;www.hgk.de;;;;;;Herr;Dr.;;Bender;;;Internet;;;presse@hgk.de;;;;Herr;;Mark;Schmitz;;;Systemadministrator;;;schmitzm@hgk.de;;;;Herr;;Hans-Georg;Pitzen;;;Marketingleiter;;;presse@hgk.de;;;;Herr;;Horst;Leonhardt;;;Vorstand;;;presse@hgk.de;;;;;;;;;;;;;;;;;40;;;7010   Binnenschifffahrt;;;;;;;2;;
;HARTMETALL-WERKZEUGFABRIK Paul Horn GbH;;;72072;Tübingen;;;info@phorn.de;www.phorn.de;;;;;;Herr;;Werner;Pietruschka;;;EDV/ORG-Leiter;;;info@phorn.de;;;;Herr;;Lothar;Horn;;;Geschäftsführer;;;info@phorn.de;;;;Herr;;Helmuth;Wiedmaier;;;Internet;;;info@phorn.de;;;;;;;;;;;;;;;;;;;;;;;;;;;;;;900;;;3070   Werkzeugfabrik;;;;;;;1;;
;Heimerle + Meule GmbH;;;75179;Pforzheim;;;info@heimerle-meule.com;http://www.heimerle-meule.com/;;;;;;Sehr geehrter Herr Dr.;Dr.;Peter;Dorner;;;Geschäftsführer;;;info@heimerle-meule.com;;;;;;;;;;;;;;;;;;;;;;;;;;;;;;;;;;;;;;;;;;;;;;;;;;;;;;;;;;;;;;;;;;3;;
;Heraeus Infosystems GmbH;;;63450;Hanau;;;pr@heraeus.com;www.heraeus.com;;;;;;Herr;;Martin;Ackermann;;;EDV/ORG-Leiter;;;pr@heraeus.com;;;;Herr;;Volker;Männle;;;Geschäftsführer;;;pr@heraeus.com;;;;;;;;;;;;;;;;;;;;;;;;;;;;;;;;;;;;;;;;;;;300;;;UB   Beratung,Lotus,SAP,Citrix;;;;;;;1;;
;Heraeus Kulzer GmbH;;;61273;Wehrheim;;;technik.wehrheim@heraeus.com;www.kulzer-technik.de;;;;;;Herr;Dr.;;Haase;;;Geschäftsführer;;;technik.wehrheim@heraeus.com;;;;Herr;;Klaus;Reitz;;;Geschäftsführer;;;info.dent@heraeus.com;;;;Herr;;;Freialdenhoven;;;EDV;;;technik.wehrheim@heraeus.com;;;;Herr;;Carsten;Rüchel;;;EDV/ORG-Leiter;;;info.dent@heraeus.com;;;;;;;;;;;;;;;;;250;;;9980;;;;;;;1;;
;Herbert Richter Metallwaren-Apparatebau GmbH & Co;;;75180;Pforzheim;;;info@hr-autocomfort.de;http://www.hr-autocomfort.de;;;;;;Sehr geehrter Herr;;Harald;Richter;;;Geschäftsführer;;;info@hr-autocomfort.de;;;;;;;;;;;;;;;;;;;;;;;;;;;;;;;;;;;;;;;;;;;;;;;;;;;;;;;;;;;;;;;;;;3;;
;Hiller & Lutz GmbH & Co.;;;75443;Ötisheim;;;Hiller-Lutz@t-online.de;;;;;;;Sehr geehrter Herr;;Eberhard;Kick;;;Geschäftsführer;;;Hiller-Lutz@t-online.de;;;;;;;;;;;;;;;;;;;;;;;;;;;;;;;;;;;;;;;;;;;;;;;;;;;;;;;;;;;;;;;;;;1;;
;Hohensteiner Institute;;;74357;Bönnigheim;;;info@hohenstein.de;www.hohenstein.de;;;;;;Herr;;Frank;Müthing;;;EDV/ORG-Leiter;;;info@hohenstein.de;;;;Frau;;Rose-Marie;Riedl;;;Geschäftsführerin;;;info@hohenstein.de;;;;Herr;;;Brozik;;;Stv. Leiter IT;;;info@hohenstein.de;;;;;;;;;;;;;;;;;;;;;;;;;;;;;;300;;;9980   Forschung und Entwicklung im Bereich Ingenieurwiss;;;;;;;1;;
;hotel.de GmbH;;;90411;Nürnberg;;;info@hotel.de;www.hotel.de;;;;;;Frau;;Sven;Latzel;;;Head of Enterprise Applications;;;info@hotel.de;;;;;;;;;;;;;;;;;;;;;;;;;;;;;;;;;;;;;;;;;;;;;;;;;;;;;;;;120;;;DIE   Internetdienste,Hotel-Buchungsmaschine,SAP;;;;;;;2;;
;HQ Trust GmbH;;;61352;Bad Homburg;;;;www.hqtrust.de;;;;;;Herr;Dr.;;Becker;;;Geschäftsführer;;;;;;;Herr;;Friedrich-Karl;Braun;;;Geschäftsführer;;;;;;;Herr;;Roland;May;;;;;;RMay@hqadvisor.de;;;;;;;;;;;;;;;;;;;;;;;;;;;;;;100;;;8000   Finanzdienstleistungen;;;;;;;1;;
;ict Innovative Communication  Technologies AG;;;72664;Kohlberg;;;info@ict.de;www.ict.de;;;;;;Herr;;Detlef;Beiter;;;Vorstand;;;info@ict.de;;;;Herr;;Steffen;Strehle;;;EDV/ORG-Leiter;;;info@ict.de;;;;Herr;;Karl;Hartmann;;;Vorstand;;;info@ict.de;;;;Frau;;Susanne;Dietz;;;;;;info@ict.de;;;;;;;;;;;;;;;;;120;;;UB   Beratung,Software;;;;;;;1;;
;ICT Software Engineering GmbH;;;76137;Karlsruhe;;;info@ict-se.de;www.ict-se.de;;;;;;Herr;;Carlo A.G.;D'Agnolo;;;Geschäftsführer;;;info@ict-se.de;;;;;;;;;;;;;;;;;;;;;;;;;;;;;;;;;;;;;;;;;;;;;;;;;;;;;;;;60;;;UB   Software,Beratung;;;;;;;1;;
;ieQ-systems AG;;;48155;Münster;;;info@ieq-systems.de;www.ieq-systems.de;;;;;;Herr;Dipl.-Kfm.;Markus;Büttermann;;;Vorstand;;;info@ieq-systems.de;;;;Herr;;Markus;Frönd;;;Prokurist;;;info@ieq-systems.de;;;;Herr;;Thorsten;Becker;;;Teamleiter QM;;;info@ieq-systems.de;;;;Herr;;Carsten;Stemberg;;;Prokurist;;;info@ieq-systems.de;;;;;;;;;;;;;;;;;100;;;UB   Beratung,Internetdienste,CRM;;;;;;;1;;
;IMPAQ AG;;;65760;Eschborn;;;info@impag-pluralis.com;www.impaq-pluralis.com;;;;;;Herr;;Jens;Vossen;;;Marketingleiter;;;info@impag-pluralis.com;;;;Herr;;Nils;Haase;;;Finanzwesen;;;info@impag-pluralis.com;;;;Herr;;Uwe;Kannemacher;;;Vorstand;;;info@impag-pluralis.com;;;;;;;;;;;;;;;;;;;;;;;;;;;;;;100;;;UB   Beratung,Software;;;;;;;1;;
;IMS Gear GmbH;;;78166;Donaueschingen;;;info@imsgear.com;www.imsgear.com;;;;;;Herr;;Johannes;Modrzejewski;;;EDV/ORG-Leiter;;;info@imsgear.com;;;;Herr;;Dieter;Lebzelter;;;Geschäftsführer;;;info@imsgear.com;;;;Frau;;;Haller;;;Marketing Leitung;;;info@imsgear.com;;;;;;;;;;;;;;;;;;;;;;;;;;;;;;850;;;3070   Zahnrad-und Getriebetechnik;;;;;;;1;;
;Inform Institut für Operations-Research und Management GmbH;;;52076;Aachen;;;info@inform-ac.com;www.inform-ac.de;;;;;;Frau;;Anna;Schindler;;;Presse;;;info@inform-ac.com;;;;Herr;;Adrian;Weiler;;;Geschäftsführer;;;info@inform-ac.com;;;;Herr;;Stephan;Bernstein;;;Internet;;;stephan.bernstein@inform-software.com;;;;Herr;;Rolf;Krüger;;;;;;info@inform-ac.com;;;;;;;;;;;;;;;;;500;;;UB   Software-und Systemhaus,Novell,SAP,Microsoft;;;;;;;1;;
;ISS Facillity Service GmbH;;;40468;Düsseldorf;;;info@de.issworld.com;www.issworld.de;;;;;;Herr;Dr.;;Granderath;;;Geschäftsführer;;;info@de.issworld.com;;;;Herr;;;Mustersteg;;;Leiter IT;;;info@de.issworld.com;;;;Herr;;Frank;Merry;;;Geschäftsführer;;;info@de.issworld.com;;;;;;;;;;;;;;;;;;;;;;;;;;;;;;11500;;;8090   Gebäudereinigung;;;;;;;1;;
;ITSC GmbH InformationsTechnologie ServiceCenter;;;30627;Hannover;;;walter.hofmeister@itsc.de;www.itsc.de;;;;;;Herr;;Martin;Behmann;;;Geschäftsführer;;;walter.hofmeister@itsc.de;;;;Herr;;Heiko;Jaschik;;;;;;walter.hofmeister@itsc.de;;;;Herr;Dipl.-Kfm.;Stefan;Kreit;;;;;;walter.hofmeister@itsc.de;;;;;;;;;;;;;;;;;;;;;;;;;;;;;;420;;;RZ   Rechenzentrum,Hardware,Beratung;;;;;;;1;;
;J. Fischer & Sohn KG;;;75177;Pforzheim;;;;http://www.fischer-trauringe.de;;;;;;Sehr geehrter Herr;;Wolfgang;Fischer;;;Geschäftsführer;;;;;;;;;;;;;;;;;;;;;;;;;;;;;;;;;;;;;;;;;;;;;;;;;;;;;;;;;;;;;;;;;;;;;1;;
;Karl Klink GmbH;;;75223;Niefern-Öschelbronn;;;kkn@karl-klink.de;http://www.karl-klink.de;;;;;;Sehr geehrter Herr;;Michael;Appich;;;Geschäftsführer;;;kkn@karl-klink.de;;;;;;;;;;;;;;;;;;;;;;;;;;;;;;;;;;;;;;;;;;;;;;;;;;;;;;;;;;;;;;;;;;3;;
;Karl oHG;;;97228;Rottendorf;;;info@karl-vending.de;www.karl-vending.de;;;;;;Herr;;Christian;Scholz;;;EDV/ORG-Leiter;;;info@karl-vending.de;;;;Herr;;Albert;Karl;;;Geschäftsführer;;;info@karl-vending.de;;;;Herr;;Thomas;Karl;;;Vertriebsleiter;;;info@karl-vending.de;;;;Herr;;Holger;Karl;;;Geschäftsführer;;;info@karl-vending.de;;;;;;;;;;;;;;;;;40;;;9980   Automaten,Bürokaffeemaschinen;;;;;;;2;;
;Kaspersky Labs GmbH;;;85055;Ingolstadt;;;info@kaspersky.de;www.kaspersky.de;;;;;;Herr;;Marcel;Schaller;;;Geschäftsführer;;;info@kaspersky.de;;;;Frau;;Marc;Rudolph;;;CRM;;;info@kaspersky.de;;;;Frau;;Barbara;Keppler;;;Vertriebsleiterin;;;info@kaspersky.de;;;;Herr;;Stefan;Rojacher;;;;;;info@kaspersky.de;;;;;;;;;;;;;;;;;160;;;UB   Software,Datensicherheit,Lotus;;;;;;;1;;
;Kautex Maschinenbau GmbH;;;53229;Bonn;;;info@kautex-group.com;www.kautex-group.com;;;;;;Herr;;Peter;Keller;;;EDV/ORG-Leiter;;;info@kautex-group.com;;;;Herr;;Andreas;Lichtenauer;;;Geschäftsführer;;;info@kautex-group.com;;;;;;;;;;;;;;;;;;;;;;;;;;;;;;;;;;;;;;;;;;;250;;;3020   Maschinen;;;;;;;2;;
;Kleiner GmbH & Co.KG;;;87719;Mindelheim;;;info@kleiner.de;www.kleiner.de;;;;;;Herr;;Detlev;Mages;;;EDV/ORG-Leiter;;;info@kleiner.de;;;;Herr;;Ludwig;Kleiner;;;Geschäftsführer;;;info@kleiner.de;;;;Herr;;;Güter;;;IT-Admin;;;info@kleiner.de;;;;Frau;;Stefanie;Hemer;;;Webmaster;;;info@kleiner.de;;;;;;;;;;;;;;;;;500;;;6000   ,Sanitär,Bauelemente,Heizung,Solartechnik;;;;;;;1;;
;Lauffer Holding GmbH & Co. KG;;;72160;Horb am Neckar;;;nv@is-engineering.de;www.lauffer.de;;;;;;Sehr geehrter Herr;;Richard;Lauffer;;;Geschäftsführer;;;nv@is-engineering.de;;;;Sehr geehrter Herr;;Hans-Martin;Lauffer;;;Geschäftsführer;;;lauffer.pressen@lauffer.de;;;;;;;;;;;;;;;;;;;;;;;;;;;;;;;;;;;;;;;;;;;;;;;;;;;;;1;;
;LCN Wilde Cosmetics GmbH;;;65375;Oestrich-Winkel;;;info@wilde-cosmetics.de;www.wilde-cosmetics.de;;;;;;Herr;;Michael;Kalow;;;Geschäftsführer;;;info@wilde-cosmetics.de;;;;;;;;;;;;;;;;;;;;;;;;;;;;;;;;;;;;;;;;;;;;;;;;;;;;;;;;;;;6010   Kosmetik;;;;;;;1;;
;LH Dienstbekleidungs GmbH;;;51149;Köln;;;info@lhd-gruppe.de;www.lhd-gruppe.de;;;;;;Herr;;Thorsten;Stryschik;;;EDV/ORG-Leiter;;;info@lhd-gruppe.de;;;;Herr;;Rüdiger;Heeg;;;Geschäftsführer;;;info@lhd-gruppe.de;;;;Frau;;Olga;Maikranz;;;Geschäftsführerin;;;info@lhd-gruppe.de;;;;Herr;;Thorsten;Weiß;;;Internet;;;info@lhd-gruppe.de;;;;;;;;;;;;;;;;;2500;;;6000   Dienstbekleidung;;;;;;;1;;
;List AG;;;48529;Nordhorn;;;info@list-ag.de;www.list-ag.de;;;;;;Herr;;Henning;Krüp;;;EDV/ORG-Leiter;;;info@list-ag.de;;;;;;;;;;;;;;;;;;;;;;;;;;;;;;;;;;;;;;;;;;;;;;;;;;;;;;;;60;;;8990   Brückenbauunternehmen;;;;;;;2;;
;Mackevision Medien Design GmbH;;;70174;Stuttgart;;;info@mackevision.de;www.mackevision.de;;;;;;Frau;;Lena;Helmhold;;;;;;info@mackevision.de;;;;Herr;;Joachim;Lincke;;;Geschäftsführer;;;info@mackevision.de;;;;Herr;;Nathalie;Kozak;;;Geschäftsführer;;;info@mackevision.de;;;;;;;;;;;;;;;;;;;;;;;;;;;;;;130;;;8050   Bildkommunikation;;;;;;;1;;
;Mader GmbH & Co.KG;;;70771;Leinfelden-Echterdingen;;;info@mader-technik.de;www.mader-technik.de;;;;;;Herr;;Jürgen;Keck;;;Geschäftsführer;;;info@mader-technik.de;;;;Herr;;Klaus;Knöll;;;IT-Verantwortliche;;;info@mader-technik.de;;;;Frau;;Ulrike;Böhm;;;Geschäftsführerin;;;info@mader-technik.de;;;;;;;;;;;;;;;;;;;;;;;;;;;;;;80;;;3060   Pneumatik,Handhabungstechnik;;;;;;;1;;
;Mall GmbH;;;78166;Donaueschingen;;;info@mall.info;www.mall.info;;;;;;Herr;;Klaus;Vollmer;;;EDV/ORG-Leiter;;;info@mall.info;;;;Frau;;Sylca;Kleiner;;;Geschäftsführerin;;;info@mall.info;;;;Herr;;Richard;Kaltenbach;;;Marketingleiter;;;info@mall.info;;;;;;;;;;;;;;;;;;;;;;;;;;;;;;440;;;5050   Umwetltechnik,Betonfertigteile,Solartechnik;;;;;;;2;;
;Menü 2000 Catering Röttgers GmbH & Co. KG;;;26871;Papenburg;;;info@menue2000.de;www.menue2000.de;;;;;;Herr;;Hermann Josef;Röttgers;;;Geschäftsführer;;;info@menue2000.de;;;;Herr;;Dennis;Vehring;;;Assistenz GL;;;Dennis.Vehring@menue2000.de;;;;;;;;;;;;;;;;;;;;;;;;;;;;;;;;;;;;;;;;;;;700;;;9010   Catering;;;;;;;1;;
;Messe München GmbH;;;81829;München;;;franz.poeschel@messe-muenchen.de;www.messe-muenchen.de;;;;;;Herr;;Franz;Pöschel;;;Leiter IT;;;franz.poeschel@messe-muenchen.de;;;;Herr;;;Stephan;;;WL;;;newsline@messe-muenchen.de;;;;Frau;;Manuela;Wieland;;;Geschäftsführerin;;;newsline@messe-muenchen.de;;;;;;;;;;;;;;;;;;;;;;;;;;;;;;550;;;DIE   Messeveranstaltungen;;;;;;;1;;
;Midas Pharma GmbH;;;55218;Ingelheim;;;info@midas-pharma.com;www.midas-pharma.com;;;;;;Herr;;Karl-Heinz;Schleicher;;;Geschäftsführer;;;info@midas-pharma.com;;;;Herr;;Dirk;Weidenbach;;;Geschäftsführer;;;info@midas-pharma.com;;;;;;;;;;;;;;;;;;;;;;;;;;;;;;;;;;;;;;;;;;;90;;;4010   Pharmazeutische Chemie;;;;;;;1;;
;MIK GmbH;;;78479;Reichenau;;;info@mik.de;www.mik.de;;;;;;Frau;;Julia;Höll;;;Vertriebsleiterin;;;info@mik.de;;;;;;;;;;;;;;;;;;;;;;;;;;;;;;;;;;;;;;;;;;;;;;;;;;;;;;;;300;;;UB   Hardware,Informatik,Beratung,Software,Lotus,SAP,Microsoft;;;;;;;2;;
;Moderne Verpackung Carl Bernh. Hoffmann GmbH & Co.KG;;;41564;Kaarst;;;info@hoffmann-verpackung.de;www.moderne-verpackung.de;;;;;;Herr;;Karl-Gerd;Coenen;;;Geschäftsführer;;;info@hoffmann-verpackung.de;;;;Herr;;Guido;Coenen;;;Geschäftsführer;;;info@hoffmann-verpackung.de;;;;;;;;;;;;;;;;;;;;;;;;;;;;;;;;;;;;;;;;;;;250;;;4050   Verpackungen;;;;;;;1;;
;MODUS Consult AG;;;33334;Gütersloh;;;contact-@-modusconsult.de;www.modusconsult.de;;;;;;Herr;;Christoph;Mertens;;;;;;contact-@-modusconsult.de;;;;Herr;;Martin;Schildmacher;;;Vorstand;;;contact-@-modusconsult.de;;;;Herr;;Gerd;Elbrächter;;;Vorstand;;;contact-@-modusconsult.de;;;;Herr;;Maik;Vöge;;;Vorstand;;;contact-@-modusconsult.de;;;;;;;;;;;;;;;;;130;;;UB   EDV-Beratung,Software,Navision,SQL,DMS,ELO,CRM;;;;;;;1;;
;MorphoSys AG;;;82152;Planegg;;;info@morphosys.com;www.mophosys.com;;;;;;Herr;;Steffen;Pohlenz;;;EDV/ORG-Leiter;;;info@morphosys.com;;;;Herr;;David;Lemus;;;Vorstand;;;info@morphosys.com;;;;Frau;;Andrea;Schwarz;;;Vorstand;;;info@morphosys.com;;;;;;;;;;;;;;;;;;;;;;;;;;;;;;300;;;4010   Biotechnologie;;;;;;;1;;
;MVC Mobile VideoCommunication AG;;;60489;Frankfurt;;;info@mvc.de;www.mvc.de;;;;;;Herr;Dr.;;Damberger;;;Geschäftsführer;;;info@mvc.de;;;;Herr;;Karsten;Bauer;;;EDV/ORG-Leiter;;;info@mvc.de;;;;Herr;;Frank;Müller;;;Vertriebsleiter;;;info@mvc.de;;;;Frau;;Denja;Duric-Kessler;;;Geschäftsführerin;;;info@mvc.de;;;;;;;;;;;;;;;;;330;;;UB   Beratung,SAP;;;;;;;1;;
;Nagel GmbH;;;70565;Stuttgart;;;sales@ernstnagel.com;www.ernstnagel.com;;;;;;Herr;;Michael;Jellinghaus;;;Presse;;;sales@ernstnagel.com;;;;Frau;;Katja;Werner;;;Marketingleiter;;;sales@ernstnagel.com;;;;Herr;Dr.;;Swaczina;;;Geschäftsführer;;;sales@ernstnagel.com;;;;;;;;;;;;;;;;;;;;;;;;;;;;;;56;;;9980   Heft-,Falz-und Schneidmaschinen;;;;;;;1;;
;natGAS AG;;;14469;Potsdam;;;info@natgas.de;www.natgas.de;;;;;;Herr;;Philipp;Thielke;;;EDV/ORG-Leiter;;;info@natgas.de;;;;Herr;;;Schröder;;;EDV Leiter;;;Schroeder@natgas.de;;;;Frau;;Valeria Laura;Beiersdorf;;;Vorstand;;;info@natgas.de;;;;;;;;;;;;;;;;;;;;;;;;;;;;;;35;;;2000   Energieversorgung;;;;;;;1;;
;ND SatCom GmbH;;;88090;Immenstaad;;;info@ndsatcom.com;www.ndsatcom.com;;;;;;Herr;;Andreas;Gottschall;;;EDV/ORG-Leiter;;;info@ndsatcom.com;;;;Herr;;Julian;Bott;;;Geschäftsführer;;;info@ndsatcom.com;;;;;;;;;;;;;;;;;;;;;;;;;;;;;;;;;;;;;;;;;;;200;;;9980   Telekommunikation;;;;;;;2;;
;Nehlsen GmbH & Co.KG;;;28237;Bremen;;;Michael.Drost@nehlsen.com;www.nehlsen.com;;;;;;Herr;;Claudia;Bunkenborg;;;EDV/ORG-Leiter;;;Michael.Drost@nehlsen.com;;;;Herr;;Peter;Hoffmeyer;;;Geschäftsführer;;;Michael.Drost@nehlsen.com;;;;Herr;;Axel;Plaßmeier;;;Leiter IT;;;axel.Plassmeier@nehlsen.com;;;;;;;;;;;;;;;;;;;;;;;;;;;;;;4000;;;8090   Haustechnik,Entsorgung;;;;;;;1;;
;Neuman & Esser GmbH & Co.KG;;;52531;Übach-Palenberg;;;neuman.esser@t-online.de;www.neumann-esser.de;;;;;;Herr;;Thomas;Kloke;;;EDV/ORG-Leiter;;;neuman.esser@t-online.de;;;;Herr;;Hanns H.;Begass;;;Geschäftsführer;;;neuman.esser@t-online.de;;;;Frau;;Stefanie;Peters;;;Geschäftsführerin;;;neuman.esser@t-online.de;;;;;;;;;;;;;;;;;;;;;;;;;;;;;;880;;;3020   Maschinenfabrik;;;;;;;1;;
;Nielsen Design GmbH & Co.KG;;;33378;Rheda-Wiedenbrück;;;info@nielsen-design.de;www.nielsen-design.de;;;;;;Herr;;Reinhard;Bussieweke;;;EDV/ORG-Leiter;;;info@nielsen-design.de;;;;Herr;;Frank;Lohoff;;;EDV;;;F.Lohoff@nielsen-design.de;;;;Herr;;Jochen;Schmits;;;Geschäftsführer;;;info@nielsen-design.de;;;;;;;;;;;;;;;;;;;;;;;;;;;;;;390;;;4040   Bilderrahmen;;;;;;;1;;
;Nordmann Unternehmensgruppe GmbH & Co.KG;;;27793;Wildeshausen;;;wildeshausen@nordmann.de;www.nordmann.de;;;;;;Herr;;Fritz-Dieter;Nordmann;;;Geschäftsführer;;;wildeshausen@nordmann.de;;;;Herr;;Roland;Damme;;;CRM;;;roland.damme@nordmann.de;;;;;;;;;;;;;;;;;;;;;;;;;;;;;;;;;;;;;;;;;;;145;;;4090   Getränke;;;;;;;1;;
;Nypro Healthcare GmbH;;;75438;Knittlingen;;;;http://www.schlosser-medizintechnik.de;;;;;;Sehr geehrter Herr;;Thomas;Laue;;;Geschäftsführer;;;;;;;;;;;;;;;;;;;;;;;;;;;;;;;;;;;;;;;;;;;;;;;;;;;;;;;;;;;;;;;;;;;;;1;;
;Object Carpet GmbH;;;73770;Denkendorf;;;info@object-carpet.com;www.object-carpet.com;;;;;;Frau;;Conny;Schlichter;;;Presse;;;info@object-carpet.com;;;;Herr;;Alkis;Athanasopoulos;;;Manager IT;;;info@object-carpet.com;;;;Herr;;Klaus;Szilagyi;;;Geschäftsführer;;;info@object-carpet.com;;;;;;;;;;;;;;;;;;;;;;;;;;;;;;100;;;4070   Teppiche;;;;;;;1;;
;OSCAR GmbH;;;50677;Köln;;;info@oscar.de;www.oscar.de;;;;;;Herr;;Axel;von Leitner;;;Geschäftsführer;;;info@oscar.de;;;;Herr;;Robert;Koch;;;Geschäftsführer;;;info@oscar.de;;;;;;;;;;;;;;;;;;;;;;;;;;;;;;;;;;;;;;;;;;;45;;;8080   Beratung;;;;;;;1;;
;Physik Instrumente GmbH & Co.KG;;;76228;Karlsruhe;;;info@pi.ws;www.pi.ws;;;;;;Herr;;;Westrich;;;CRM Verantwortlicher;;;info@pi.ws;;;;Herr;;Norbert;Ludwig;;;Internet;;;info@pi.ws;;;;Herr;Dr.;;Spanner;;;Geschäftsführer;;;info@pi.ws;;;;;;;;;;;;;;;;;;;;;;;;;;;;;;500;;;3050   Monitor-Control-Systeme;;;;;;;2;;
;prevero AG;;;80339;München;;;info@prevero.de;www.prevero.de;;;;;;Herr;;Alexander;Springer;;;Vorstand;;;info@prevero.de;;;;Herr;;Matthias;Thurner;;;Vorstand;;;info@prevero.de;;;;;;;;;;;;;;;;;;;;;;;;;;;;;;;;;;;;;;;;;;;100;;;UB   Beratung,Software,SAP;;;;;;;1;;
;ProCredit Holding AG;;;60435;Frankfurt;;;info@procredit-holding.com;www.procredit-holding.com;;;;;;Herr;;Stephan;Boven;;;Vorstand;;;info@procredit-holding.com;;;;;;;;;;;;;;;;;;;;;;;;;;;;;;;;;;;;;;;;;;;;;;;;;;;;;;;;110;;;8000   Bank;;;;;;;1;;
;Robert E. Huber GmbH;;;75203;Königsbach-Stein;;;mail@rehuber.de;http://www.rehuber.de;;;;;;Sehr geehrter Herr;;Dietmar;Frei;;;Geschäftsführer;;;mail@rehuber.de;;;;;;;;;;;;;;;;;;;;;;;;;;;;;;;;;;;;;;;;;;;;;;;;;;;;;;;;;;;;;;;;;;1;;
;Robert Seuffer GmbH & Co. KG;;;75365;Calw;;;info@seuffer.de;http://www.seuffer.de;;;;;;Sehr geehrter Herr Dr.;Dr.;Willi;Enderle;;;Geschäftsführer;;;info@seuffer.de;;;;;;;;;;;;;;;;;;;;;;;;;;;;;;;;;;;;;;;;;;;;;;;;;;;;;;;;;;;;;;;;;;3;;
;Rowa Automatisierungssysteme GmbH;;;53539;Kelberg;;;info@rowa.de;www.rowa.de;;;;;;Herr;;;Schmitz;;;Internet;;;info@rowa.de;;;;Herr;;Udo;Weller;;;EDV/ORG-Leiter;;;info@rowa.de;;;;Frau;;Petra;Ueberhofen;;;Internet;;;info@rowa.de;;;;;;;;;;;;;;;;;;;;;;;;;;;;;;300;;;3060   Regeltechnik;;;;;;;2;;
;RSN Sihn GmbH;;;75223;Niefern-Öschelbronn;;;vertrieb@robertsihn.de;http://www.robertsihn.de;;;;;;Sehr geehrter Herr Dr.;Dr.-Ing.;Andreas;Baum;;;Geschäftsführer;;;vertrieb@robertsihn.de;;;;;;;;;;;;;;;;;;;;;;;;;;;;;;;;;;;;;;;;;;;;;;;;;;;;;;;;;;;;;;;;;;3;;
;Rundfunk Orchester und Chöre gGmbH;;;10117;Berlin;;;preuss@roc-berlin.de;www.roc-berlin.de;;;;;;Herr;;Sebastian;Preuß;;;Marketingleiter;;;preuss@roc-berlin.de;;;;;;;;;;;;;;;;;;;;;;;;;;;;;;;;;;;;;;;;;;;;;;;;;;;;;;;;350;;;8090   Orchester;;;;;;;2;;
;Saint-Gobain Building Distribution Deutschland GmbH;;;60314;Frankfurt;;;info@sgbd-deutschland.de;www.sgbd-deutschland.de;;;;;;Herr;;;Watzlawek;;;EDV/ORG-Leiter;;;info@sgbd-deutschland.de;;;;Frau;;Katrin;Will;;;Presse;;;info@sgbd-deutschland.de;;;;Herr;Dr.;;Weigl;;;Geschäftsführer;;;info@sgbd-deutschland.de;;;;;;;;;;;;;;;;;;;;;;;;;;;;;;5500;;;6000   Baustoffe,Solartechnik,Photovoltaik;;;;;;;1;;
;SCA Hygiene Products SE;;;85356;München-Flughafen;;;info.hygieneag@sca.com;www.sca.com;;;;;;Herr;;Marc;Kalbermatten;;;EDV/ORG-Leiter;;;info.hygieneag@sca.com;;;;Herr;;Günter;Kaske;;;Vorstand;;;info.hygieneag@sca.com;;;;;;;;;;;;;;;;;;;;;;;;;;;;;;;;;;;;;;;;;;;;;;4050   Papierfabrik;;;;;;;1;;
;Schäfer Industriewartungen GmbH & Co. KG;;;75433;Maulbronn;;;k.schaefer@schaefer-industriewartungen.de;;;;;;;Sehr geehrter Herr;;Karl;Schäfer;;;Geschäftsführer;;;k.schaefer@schaefer-industriewartungen.de;;;;;;;;;;;;;;;;;;;;;;;;;;;;;;;;;;;;;;;;;;;;;;;;;;;;;;;;;;;;;;;;;;3;;
;Schlenk AG;;;91154;Roth;;;postmaster@schlenk.de;www.schlenk.de;;;;;;Herr;;Gerhard;Meyer;;;EDV/ORG-Leiter;;;postmaster@schlenk.de;;;;Herr;;Anton;Stellwag;;;Vorstand;;;postmaster@schlenk.de;;;;Herr;Dr.;;Seidl;;;Vorstand;;;postmaster@schlenk.de;;;;;;;;;;;;;;;;;;;;;;;;;;;;;;900;;;9980   Metallfolien;;;;;;;1;;
;Schmitz GmbH & Co.KG;;;48432;Rheine;;;info@hardy-schmitz.de;www.hardy-schmitz.de;;;;;;Herr;;;Rohlmann;;;EDV/ORG-Leiter;;;info@hardy-schmitz.de;;;;Herr;;Robert;Schmitz;;;Geschäftsführer;;;info@hardy-schmitz.de;;;;Herr;;;Dietrich;;;CRM Verantwortlicher;;;Dietrich@hardy-schmitz.de;;;;Herr;;Jan;Schmitz;;;Internet;;;info@hardy-schmitz.de;;;;;;;;;;;;;;;;;200;;;6000   Solartechnik,Elelektrogroßhandel,WebShop;;;;;;;1;;
;Schneeberger GmbH;;;75339;Höfen an der Enz;;;hans-hermann.rahlmeyer@schneeberger.com;http://www.schneeberger.com;;;;;;Sehr geehrter Herr;;Hans-Herrmann;Rahlmeyer;;;Geschäftsführer;;;hans-hermann.rahlmeyer@schneeberger.com;;;;;;;;;;;;;;;;;;;;;;;;;;;;;;;;;;;;;;;;;;;;;;;;;;;;;;;;;;;;;;;;;;3;;
;SCHUFA HOLDING AG;;;80687;München;;;muenchen@schufa.de;www.schufa.de;;;;;;Herr;Dr.;;Freytag;;;Vorstand;;;muenchen@schufa.de;;;;Herr;Prof.;Dieter;Steinbauer;;;EDV/ORG-Leiter;;;muenchen@schufa.de;;;;Herr;;Holger;Severitt;;;Vorstand;;;muenchen@schufa.de;;;;;;;;;;;;;;;;;;;;;;;;;;;;;;700;;;9980   Auskunftei;;;;;;;1;;
;Seehafen Kiel GmbH & Co.KG;;;24103;Kiel;;;info@port-of-kiel.de;www.port-of-kiel.de;;;;;;Herr;Dr.;;Claus;;;Geschäftsführer;;;info@port-of-kiel.de;;;;Herr;;Lars;Gummels;;;EDV/ORG-Leiter;;;info@port-of-kiel.de;;;;Frau;;Sabine;Janßen;;;Finanzwesen;;;info@port-of-kiel.de;;;;;;;;;;;;;;;;;;;;;;;;;;;;;;;;;7020   Spedition,Hafen;;;;;;;1;;
;SieMatic Möbelwerke GmbH & Co.KG;;;32584;Löhne;;;info@siematic.de;www.siematic.de;;;;;;Herr;;Thorsten;Pawelczyk;;;EDV/ORG-Leiter;;;info@siematic.de;;;;Herr;;Ulrich Wilhelm;Siekmann;;;Geschäftsführer;;;info@siematic.de;;;;;;;;;;;;;;;;;;;;;;;;;;;;;;;;;;;;;;;;;;;400;;;4040   Möbel,Küchen;;;;;;;1;;
;Simon H. Steiner Hopfen-GmbH;;;84048;Mainburg;;;info@hopsteiner.de;www.hopsteiner.com;;;;;;Herr;;Manfred;Ingerl;;;Leiter IT;;;info@hopsteiner.de;;;;Herr;;Joachim;Gehde;;;Geschäftsführer;;;info@hopsteiner.de;;;;;;;;;;;;;;;;;;;;;;;;;;;;;;;;;;;;;;;;;;;30;;;4080   Brauerei;;;;;;;2;;
;Solarparc AG;;;53117;Bonn;;;info@solarparc.de;www.solarparc.de;;;;;;Herr;Dr.;;Günzel;;;Vorstand;;;info@solarparc.de;;;;Herr;;Volker;Ketzel;;;EDV/ORG-Leiter;;;info@solarparc.de;;;;Frau;;Sandra;Schmitz;;;Vorstand;;;info@solarparc.de;;;;Herr;;Lothar;Tolls;;;Marketingleiter;;;info@solarparc.de;;;;;;;;;;;;;;;;;30;;;3050   Solartechnik;;;;;;;1;;
;Sonderhoff Chemicals GmbH;;;50829;Köln;;;info@sonderhoff.de;www.sonderhoff.de;;;;;;Herr;;;Schmidt;;;CRM-Verantwortlicher;;;info@sonderhoff.de;;;;Herr;;Philip;Rothmann;;;EDV/ORG-Leiter;;;info@sonderhoff.de;;;;Herr;;Axel;Erken;;;Geschäftsführer;;;info@sonderhoff.de;;;;;;;;;;;;;;;;;;;;;;;;;;;;;;50;;;4000   Chemische Dichtungs-,Verguss-und Klebesysteme;;;;;;;2;;
;Spaeter GmbH;;;12057;Berlin;;;info@spaeter-berlin.de;www.spaeter-berlin.de;;;;;;Herr;;Jürgen;Lingys;;;EDV/ORG-Leiter;;;info@spaeter-berlin.de;;;;Herr;;Michael;Stumpen;;;EDV/ORG-Leiter;;;info@spaeter.de;;;;Herr;;Dirk;Wagner;;;EDV/ORG-Leiter;;;info@spaeter-viernheim.de;;;;Herr;;Uwe;Schubert;;;EDV/ORG-Leiter;;;info@spaeter-bietigheim.de;;;;Herr;;Reiner;Lotze;;;Geschäftsführer;;;info@spaeter.de;;;;120;;;6000   Stahlhandel;;;;;;;1;;
;Sparkassen Network Consulting Bayern GmbH;;;80333;München;;;info@snc-bayern.de;www.snc-bayern.de;;;;;;Herr;;Rudi;Wolf;;;EDV/ORG-Leiter;;;info@snc-bayern.de;;;;Frau;;Ulrike;Barth;;;Leiterin Unternehmensservice;;;ulrike.barth@s-c.de;;;;Herr;;Hansö-Joachim;Jandt;;;Geschäftsführer;;;info@snc-bayern.de;;;;;;;;;;;;;;;;;;;;;;;;;;;;;;25;;;8000   Sparkassen-Beratung;;;;;;;1;;
;spectrum-K GmbH;;;10117;Berlin;;;ingo.werner@spectrumk.de;www.spectrum.de;;;;;;Herr;;Ingo;Werner;;;Geschäftsführer;;;ingo.werner@spectrumk.de;;;;Herr;;Joachim;Benz;;;Abteilungsleiter IT;;;joachim.bentz@spectrum-k.de;;;;;;;;;;;;;;;;;;;;;;;;;;;;;;;;;;;;;;;;;;;100;;;9040   Gesundheitswirtschaft;;;;;;;1;;
;Spitzke SE;;;14979;Großbeeren;;;info@spitzke.com;www.spitzke.de;;;;;;Frau;Dr.;;Meinhardt;;;Finanzwesen;;;info@spitzke.com;;;;Herr;;Andreas;Rödeer;;;EDV/ORG-Leiter;;;info@spitzke.com;;;;Herr;;Waldemar;Münich;;;Vorstand;;;info@spitzke.com;;;;;;;;;;;;;;;;;;;;;;;;;;;;;;1400;;;5000   Hochbau;;;;;;;1;;
;Sprint Sanierung GmbH;;;51061;Köln;;;info@sprint.de;www.sprint.de;;;;;;Herr;;;Weeber;;;Abteilungsleiter IT;;;info@sprint.de;;;;Herr;;Ulrich;Wagensommer;;;Geschäftsführer;;;info@sprint.de;;;;Herr;;;Maggin;;;Internet;;;info@sprint.de;;;;;;;;;;;;;;;;;;;;;;;;;;;;;;400;;;9980   Sanierungsunternehmen;;;;;;;1;;
;Stadtverwaltung Kassel;;;;;;;;;;;;;;;;;Dittmer;;;Sachgebietsleiter;;;;;;;;;;;;;;;;;;;;;;;;;;;;;;;;;;;;;;;;;;;;;;;;;;;;;;;;;;;;;;;;;;;;;1;;
;STADTWERK AM SEE GmbH & Co.KG;;;88662;Überlingen;;;info@stadtwerke-ueberlingen.de;www.stadtwerke-ueberlingen.de;;;;;;Herr;;Helmut;de Francisco;;;EDV/ORG-Leiter;;;info@stadtwerke-ueberlingen.de;;;;Frau;;;Knaus;;;Assistenz;;;info@stadtwerke-ueberlingen.de;;;;Herr;;Günter;Falkenhahn;;;Finanzwesen;;;info@stadtwerke-ueberlingen.de;;;;Frau;;Anita;Bechler;;;Kaufmännischer Leiter;;;info@stadtwerke-ueberlingen.de;;;;;;;;;;;;;;;;;300;;;2000   Stadtwerke;;;;;;;1;;
;Stadtwerke Esslingen GmbH & Co.KG;;;73728;Esslingen;;;info@swe.de;www.swe.de;;;;;;Herr;;Wolfgang;Schetter;;;Geschäftsführer;;;info@swe.de;;;;Herr;;Klaus;Einsele;;;EDV/ORG-Leiter;;;info@swe.de;;;;Herr;;Alexander;Feller;;;Leiter Vertrieb;;;info@swe.de;;;;;;;;;;;;;;;;;;;;;;;;;;;;;;160;;;2000   Stadtwerke;;;;;;;1;;
;Stark Druck GmbH + Co.KG;;;75181;Pforzheim;;;nv@is-engineering.de;http://www.stark-gruppe.de/de/Impressum.html;;;;;;Sehr geehrter Herr;;Bernhard;Huff;;;Geschäftsführer;;;nv@is-engineering.de;;;;;;;;;;;;;;;;;;;;;;;;;;;;;;;;;;;;;;;;;;;;;;;;;;;;;;;;;;;;;;;;;;3;;
;Steuler Fliesen GmbH;;;75417;Mühlacker;;;klaus-martin.andreas@steuler-fliesen.de;http://www.steuler-fliesen.de;;;;;;Sehr geehrter Herr;;Klaus-Martin;Andreas;;;Geschäftsführung IT;;;klaus-martin.andreas@steuler-fliesen.de;;;;;;;;;;;;;;;;;;;;;;;;;;;;;;;;;;;;;;;;;;;;;;;;;;;;;;;;;;;;;;;;;;3;;
;Stöber Antriebstechnik GmbH & Co.KG;;;75177;Pforzheim;;;nv@is-engineering.de;http://www.stoeber.de;;;;;;Sehr geehrter Herr;;Andreas;Thiel;;;Geschäftsführer;;;nv@is-engineering.de;;;;Sehr geehrter Herr;;Patrick;Stöber;;;Geschäftsführer;;;mail@stoeber.de;;;;;;;;;;;;;;;;;;;;;;;;;;;;;;;;;;;;;;;;;;;;;;;;;;;;;1;;
;STRABAG Property and Facility Services GmbH;;;60313;Frankfurt;;;Benjamin.Porwol@strabag-pfs.com;www.strabag-pfs.com;;;;;;Herr;;Benjamin;Porwol;;;Expert IT Operations;;;Benjamin.Porwol@strabag-pfs.com;;;;Herr;Dr.;;Steinbauer;;;Geschäftsführer;;;info@strabag-pfs.com;;;;Herr;;Wilfried;Schmahl;;;Geschäftsführer;;;info@strabag-pfs.com;;;;Frau;;Gabriele;Renard;;;Geschäftsführerin;;;info@strabag-pfs.com;;;;;;;;;;;;;;;;;10200;;;8090   Serviceunternehmen;;;;;;;1;;
;Streber Kunststoffe GmbH;;;75447;Sternenfels;;;;http://www.streber-kunststoffe.de;;;;;;Sehr geehrter Herr;;Josef;Streber;;;Geschäftsführer;;;;;;;;;;;;;;;;;;;;;;;;;;;;;;;;;;;;;;;;;;;;;;;;;;;;;;;;;;;;;;;;;;;;;3;;
;Streit Service & Solution GmbH & Co.KG;;;77756;Hausach;;;info@streit.de;www.streit.de;;;;;;Herr;;;Koman;;;Teamleiter IT;;;info@streit.de;;;;Herr;;Rudolf;Bischler;;;Geschäftsführer;;;info@streit.de;;;;;;;;;;;;;;;;;;;;;;;;;;;;;;;;;;;;;;;;;;;200;;;6000   Großhandel;;;;;;;2;;
;Sudhoff Technik GmbH;;;89079;Ulm;;;info@sudhoff-technik.de;www.sudhoff-technik.de;;;;;;Herr;;Günter;Morschhauser;;;EDV/ORG-Leiter;;;info@sudhoff-technik.de;;;;Herr;;Roland;Sudhoff;;;Geschäftsführer;;;info@sudhoff-technik.de;;;;Herr;;Klaus;Sudhoff;;;Vertriebsleiter;;;info@sudhoff-technik.de;;;;Herr;;;Herter;;;Geschäftsführer;;;info@sudhoff-technik.de;;;;;;;;;;;;;;;;;70;;;3070   Werkzeugbau,Technischer Industriebedarf;;;;;;;1;;
;think-cell Operations GmbH;;;10115;Berlin;;;info@think-cell.com;www.think-cell.com;;;;;;Herr;Dr.;;Hannebauer;;;Geschäftsführer;;;info@think-cell.com;;;;Herr;Dr.;;Hannebauer;;;Geschäftsführer;;;info@think-cell.com;;;;;;;;;;;;;;;;;;;;;;;;;;;;;;;;;;;;;;;;;;;10;;;UB   Software;;;;;;;1;;
;Thomas Sabo GmbH & Co. Schmuckhandel KG;;;91207;Lauf;;;info@thomassabo.com;www.thomassabo.com;;;;;;Herr;;Norbert;Beck;;;EDV/ORG-Leiter;;;info@thomassabo.com;;;;Herr;;Berhard;Müller;;;Vertriebsleiter;;;info@thomassabo.com;;;;Herr;;Thomas;Sabo;;;Finanzwesen;;;info@thomassabo.com;;;;;;;;;;;;;;;;;;;;;;;;;;;;;;210;;;6000   Großhandel;;;;;;;1;;
;Thost Projektmanagement für Bauten und Anlagen GmbH;;;75179;Pforzheim;;;nv@is-engineering.de;http://www.thost.de;;;;;;Sehr geehrter Herr;Dr.;Franz;Sauter;;;Geschäftsführer;;;nv@is-engineering.de;;;;;;;;;;;;;;;;;;;;;;;;;;;;;;;;;;;;;;;;;;;;;;;;;;;;;;;;;;;;;;;;;;1;;
;Tintschl Holding AG;;;91058;Erlangen;;;daniela.stenz@tintschl.de;www.tintschl.de;;;;;;Frau;;Dagmar;Tintschl-Salleck;;;Geschäftsführerin;;;daniela.stenz@tintschl.de;;;;Herr;;;Scharp;;;CRM Verantwortlicher;;;daniela.stenz@tintschl.de;;;;;;;;;;;;;;;;;;;;;;;;;;;;;;;;;;;;;;;;;;;1150;;;UB   Beratung,NT,Lotus Notes,Novell,CAD,SAP;;;;;;;1;;
;TR Electronic GmbH;;;78647;Trossingen;;;info@tr-electronic.de;www.tr-electronic.de;;;;;;Herr;;Ralf;Messner;;;EDV/ORG-Leiter;;;info@tr-electronic.de;;;;Herr;;Klaus;Tessari;;;Geschäftsführer;;;info@tr-electronic.de;;;;Herr;;Burkhard;Düllo;;;Marketingleiter;;;info@tr-electronic.de;;;;;;;;;;;;;;;;;;;;;;;;;;;;;;300;;;3050   Elektronik;;;;;;;2;;
;Tress GmbH & Co.KG;;;72525;Münsingen;;;info@tress.de;www.tress.de;;;;;;Herr;;Gebhard;Walter;;;EDV/ORG-Leiter;;;info@tress.de;;;;Herr;;Markus;Tress;;;Geschäftsführer;;;info@tress.de;;;;;;;;;;;;;;;;;;;;;;;;;;;;;;;;;;;;;;;;;;;65;;;Herstellung von Teigwaren;;;;;;;2;;
;TTS Tooltechnic Systems AG & Co.KG;;;73240;Wendlingen;;;info@tooltechnicsystems.com;www.tooltechnicsystems.com;;;;;;Herr;Dr.;;Hartmann;;;Vorstand;;;info@tooltechnicsystems.com;;;;Herr;;Albert;Zabukovec;;;EDV/ORG-Leiter;;;info@tooltechnicsystems.com;;;;Herr;;Friedbert;Maul;;;Vorstand;;;info@tooltechnicsystems.com;;;;;;;;;;;;;;;;;;;;;;;;;;;;;;2500;;;9980   Werkzeugmaschinen;;;;;;;1;;
;TUI Cruises GmbH;;;20537;Hamburg;;;kontakt@tuicruises.com;www.tuicruises.com;;;;;;Herr;;Richard J.;Vogel;;;Geschäftsführer;;;kontakt@tuicruises.com;;;;Herr;;Frank;Kuhlmann;;;Geschäftsführer;;;kontakt@tuicruises.com;;;;Herr;;Michael;Baden;;;Marketingleiter;;;kontakt@tuicruises.com;;;;Frau;;Christina;Sachs;;;Kundenservice;;;Chistina.Sachs@tuicruises.com;;;;;;;;;;;;;;;;;850;;;7020   Reiseveranstalter;;;;;;;1;;
;Turck GmbH & Co.KG;;;45472;Mülheim;;;more@turck.com;www.turck.de;;;;;;Herr;;Uwe;Gottschlag;;;EDV/ORG-Leiter;;;more@turck.com;;;;Herr;Dipl.-Ing.;Ulrich;Turck;;;Geschäftsführer;;;more@turck.com;;;;Herr;;Uwe;Färber;;;Geschäftsführer;;;more@turck.com;;;;Herr;;Axel;Weiß;;;Senior Consultant;;;more@turck.com;;;;;;;;;;;;;;;;;1000;;;3050   Automaten;;;;;;;1;;
;Ungerer GmbH + Co. KG;;;75179;Pforzheim;;;webmaster@ungerer.de;http://www.ungerer.com;;;;;;Sehr geehrter Herr;;Hans-Roland;Wagner;;;Geschäftsführer;;;webmaster@ungerer.de;;;;;;;;;;;;;;;;;;;;;;;;;;;;;;;;;;;;;;;;;;;;;;;;;;;;;;;;;;;;;;;;;;3;;
;UNICEF Deutschland, Bundesgeschäftsstelle;;;50969;Köln;;;mail@unicef.de;www.junior-botschafter.de;;;;;;Herr;Dr.;;Garlichs;;;Geschäftsführer;;;mail@unicef.de;;;;Herr;;Ralf;Ohmann;;;EDV/ORG-Leiter;;;mail@unicef.de;;;;;;;;;;;;;;;;;;;;;;;;;;;;;;;;;;;;;;;;;;;100;;;9980   Spendenorganisation;;;;;;;1;;
;Universal-Investment-GmbH;;;60486;Frankfurt;;;info@ui-gmbh.de;www.universal-investment.de;;;;;;Herr;;Oliver;Harth;;;EDV/ORG-Leiter;;;info@ui-gmbh.de;;;;Herr;;Steffen;Lindenlaub;;;EDV;;;info@ui-gmbh.de;;;;Herr;;Bernd;Vorbeck;;;Geschäftsführer;;;info@ui-gmbh.de;;;;Herr;;Michael;Wolf;;;Geschäftsführer;;;info@ui-gmbh.de;;;;;;;;;;;;;;;;;500;;;8000   Kapitalanlagegesellschaft;;;;;;;1;;
;Uponor GmbH;;;97437;Haßfurt;;;installationssysteme@uponor.de;www.uponor.de;;;;;;Herr;;Tobias;Herrmann;;;EDV/ORG-Leiter;;;installationssysteme@uponor.de;;;;Herr;;Heiko;Folgmann;;;Geschäftsführer;;;installationssysteme@uponor.de;;;;Herr;;Michael;Weber;;;Geschäftsführer;;;installationssysteme@uponor.de;;;;;;;;;;;;;;;;;;;;;;;;;;;;;;4100;;;6000   Installationssysteme;;;;;;;2;;
;Verlag Der Tagesspiegel GmbH;;;10785;Berlin;;;sebastian.behrends@tagesspiegel.de;www.tagesspiegel.de;;;;;;Herr;;Sebastian;Behrends;;;CRM Manager;;;sebastian.behrends@tagesspiegel.de;;;;Herr;;Marco;Felten;;;EDV/ORG-Leiter;;;info@tagesspiegel.de;;;;Herr;;Ronny;Münstermann;;;Marketing;;;Ronny.Muenstermann@tagesspiegel.de;;;;Herr;;Moritz;von Jagow;;;Geschäftsführer;;;info@tagesspiegel.de;;;;;;;;;;;;;;;;;650;;;6020   Verlag;;;;;;;2;;
;Vivento Interim Services GmbH;;;53113;Bonn;;;;www.vivento-is.de;;;;;;Frau;;;Schwalb;;;;;;;;;;Herr;;Raymond;Homo;;;Geschäftsführer;;;;;;;;;;;;;;;;;;;;;;;;;;;;;;;;;;;;;;;;;;;;;;850;;;8080   Personaldienste;;;;;;;2;;
;Völkle Bürostühle GmbH;;;72290;Loßburg;;;info@rovo.de;http://www.rovo.de;;;;;;Sehr geehrter Herr;;Rolf Andreas;Völkle;;;Geschäftsführer;;;info@rovo.de;;;;;;;;;;;;;;;;;;;;;;;;;;;;;;;;;;;;;;;;;;;;;;;;;;;;;;;;;;;;;;;;;;3;;
;W. Abele Gesellschaft mit beschränkter Haftung;;;75417;Mühlacker;;;info@mds-abele.de;http://www.mds-abele.de;;;;;;Sehr geehrter Herr;;Werner;Abele;;;Geschäftsführer;;;info@mds-abele.de;;;;;;;;;;;;;;;;;;;;;;;;;;;;;;;;;;;;;;;;;;;;;;;;;;;;;;;;;;;;;;;;;;7;;
;wackenhut schlafkultur GmbH;;;72213;Altensteig;;;zwink_p@wackenhut.de;www.wackenhut.de;;;;;;Sehr geehrter Herr;;Stefan;Schneider;;;Geschäftsführer;;;zwink_p@wackenhut.de;;;;;;;;;;;;;;;;;;;;;;;;;;;;;;;;;;;;;;;;;;;;;;;;;;;;;;;;;;;;;;;;;;1;;
;WAFIOS Umformtechnik GmbH;;;42369;Wuppertal;;;sales@wafios-umformtechnik.de;www.wafios-umformtechnik.de;;;;;;Frau;;Susanne;Richter;;;EDV/ORG-Leiter;;;sales@wafios-umformtechnik.de;;;;Frau;;Jutta;Leib;;;Geschäftsführerin;;;sales@wafios-umformtechnik.de;;;;Frau;;Sylvia;Bohlen;;;Geschäftsführerin;;;sales@wafios-umformtechnik.de;;;;;;;;;;;;;;;;;;;;;;;;;;;;;;120;;;6000   Großhandel;;;;;;;1;;
;Wein & Vinos Jörg Horn & Partner GbR;;;10623;Berlin;;;info@vinos.de;www.vinos.de;;;;;;Herr;;Wolf;Wilder;;;Geschäftsführer;;;info@vinos.de;;;;Herr;;Jörg;Horn;;;Geschäftsführer;;;info@vinos.de;;;;;;;;;;;;;;;;;;;;;;;;;;;;;;;;;;;;;;;;;;;150;;;6010   Getränke;;;;;;;1;;
;WEMO-tec GmbH;;;36124;Eichenzell;;;info@wemo-tec.com;www.wemo-tec.com;;;;;;Herr;;Joachim;Nießner;;;Geschäftsführer;;;info@wemo-tec.com;;;;Herr;;Alexander;Boike;;;;;;info@wemo-tec.com;;;;;;;;;;;;;;;;;;;;;;;;;;;;;;;;;;;;;;;;;;;120;;;6000   Arbeitsbühnen-Vermietung;;;;;;;1;;
;Wepuko Hydraulik GmbH;;;72555;Metzingen;;;wepuko@wepuko.de;www.wepuko.de;;;;;;Herr;;;Maier;;;EDV;;;wepuko@wepuko.de;;;;Herr;;John;Ostmaston;;;Leiter IT;;;wepuko@wepuko.de;;;;;;;;;;;;;;;;;;;;;;;;;;;;;;;;;;;;;;;;;;;100;;;3020   Pumpen- und Kompressorenfabrik;;;;;;;1;;
;West Pharmaceutical Services GmbH & Co.KG;;;52249;Eschweiler;;;info@westpharma.com;www.westpharma.com;;;;;;Herr;Dr.;;Kemper;;;Finanzwesen;;;info@westpharma.com;;;;Herr;;Andreas;Gahle;;;EDV/ORG-Leiter;;;info@westpharma.com;;;;Herr;;Oskar;Gold;;;Geschäftsführer;;;info@westpharma.com;;;;Herr;;Hubert;Blumenthal;;;Geschäftsführer;;;info@westpharma.com;;;;;;;;;;;;;;;;;100;;;9090   Gummi und Gummiwaren;;;;;;;1;;
;Wieland Dental und Technik GmbH & Co. KG;;;75179;Pforzheim;;;friedrich.karle@wieland-dental.de;www.wieland-dental.de;;;;;;Sehr geehrter Herr;;Franz;Berger;;;Geschäftsführer;;;friedrich.karle@wieland-dental.de;;;;;;;;;;;;;;;;;;;;;;;;;;;;;;;;;;;;;;;;;;;;;;;;;;;;;;;;;;;;;;;;;;1;;
;Wilde Cosmetics GmbH;;;65375;Oestrich-Winkel;;;info@wilde-group.com;www.wilde-group.com;;;;;;Herr;;Thomas;Randel;;;IT-Administrator;;;info@wilde-group.com;;;;Frau;;Nadine;Ricci;;;Presse;;;info@wilde-group.com;;;;;;;;;;;;;;;;;;;;;;;;;;;;;;;;;;;;;;;;;;;180;;;4010   Kosmetik;;;;;;;2;;
;Wittenstein AG;;;97999;Igersheim;;;info@wittenstein.de;www.wittenstein.de;;;;;;Herr;;Erwin;Schuster;;;EDV/ORG-Leiter;;;info@wittenstein.de;;;;;;;;;;;;;;;;;;;;;;;;;;;;;;;;;;;;;;;;;;;;;;;;;;;;;;;;1400;;;3050   Motoren;;;;;;;1;;
;WITTENSTEIN alpha GmbH;;;97999;Igersheim;;;info-alpha@wittenstein.de;www.wittenstein-alpha.de;;;;;;Frau;;Martina;Luksch;;;Change Managerin;;;info-alpha@wittenstein.de;;;;Herr;;Thomas;Bayer;;;Geschäftsführer;;;info-alpha@wittenstein.de;;;;;;;;;;;;;;;;;;;;;;;;;;;;;;;;;;;;;;;;;;;1400;;;3070   Getriebe,Zahnräder;;;;;;;2;;
;Witzenmann;;;75175;Pforzheim;;;wi@witzenmann.com;http://wi@witzenmann.com;;;;;;Frau;;;Maag;;;;;;wi@witzenmann.com;;;;;;;;;;;;;;;;;;;;;;;;;;;;;;;;;;;;;;;;;;;;;;;;;;;;;;;;3700;;;;;;;;;;1;;
;Wünsche Handelsgesellschaft International mbH;;;20095;Hamburg;;;info@whi.de;www.whi.de;;;;;;Herr;;Thorsten;Lucas;;;EDV/ORG-Leiter;;;info@whi.de;;;;Herr;;Michael;Stöhlmacher;;;Leiter IT;;;m.stoehlmacher@whi.de;;;;Herr;;Thomas;Wümsche;;;Geschäftsführer;;;info@whi.de;;;;
